<svg xmlns="http://www.w3.org/2000/svg" xmlns:xlink="http://www.w3.org/1999/xlink" width="25" height="25" viewBox="0 0 25 25">
  <defs>
    <clipPath id="clip-path">
      <rect id="Rectangle_6" data-name="Rectangle 6" width="24" height="24"/>
    </clipPath>
    <clipPath id="clip-_25">
      <rect width="25" height="25"/>
    </clipPath>
  </defs>
  <g id="_25" data-name="25" clip-path="url(#clip-_25)">
    <g id="Assign_" data-name="Assign " transform="translate(1)" clip-path="url(#clip-path)">
      <g id="user_9_" data-name="user (9)" transform="translate(3.377 4.217)">
        <path id="Path_289" data-name="Path 289" d="M79.289-507.839a3.726,3.726,0,0,0-2.044.987,3.371,3.371,0,0,0-.784,1.078,3.169,3.169,0,0,0-.362,1.451,3.536,3.536,0,0,0,.727,2.386,3.7,3.7,0,0,0,2.618,1.463,3.7,3.7,0,0,0,2.841-.961,3.683,3.683,0,0,0,.573-4.792,3.689,3.689,0,0,0-2.442-1.585,5.117,5.117,0,0,0-1.129-.028Z" transform="translate(-73.432 507.858)" fill="#017c87"/>
        <path id="Path_290" data-name="Path 290" d="M5.825-227.88c-.049.007-.207.032-.351.053a6.462,6.462,0,0,0-1.279.334,6.411,6.411,0,0,0-3.942,4.7,6.489,6.489,0,0,0-.144,1.233c.01.011,2.326.007,5.147-.007l5.126-.025-.151-.285a5.056,5.056,0,0,1-.457-1.374,5.524,5.524,0,0,1,.035-1.581,4.84,4.84,0,0,1,.611-1.5l.091-.137-.089-.067a9.978,9.978,0,0,0-1.057-.685,6.668,6.668,0,0,0-2-.629A10.035,10.035,0,0,0,5.825-227.88Z" transform="translate(-0.109 236.431)" fill="#017c87"/>
        <path id="Path_291" data-name="Path 291" d="M294.469-225.7a3.941,3.941,0,0,0-3.274,2.87,4.484,4.484,0,0,0-.053,1.729,3.864,3.864,0,0,0,3.464,3.123,3.885,3.885,0,0,0,3.773-2.034,3.6,3.6,0,0,0,.443-1.9,2.807,2.807,0,0,0-.095-.882,3.88,3.88,0,0,0-1.016-1.8A3.867,3.867,0,0,0,294.469-225.7Zm2.368,2.723a.285.285,0,0,1,0,.38c-.046.049-.608.517-1.254,1.036-1.008.819-1.187.952-1.289.952-.144,0-.179-.032-.717-.667-.239-.281-.467-.544-.506-.59a.338.338,0,0,1,0-.394.286.286,0,0,1,.351-.056,6.66,6.66,0,0,1,.492.53c.227.26.418.474.425.474s.5-.4,1.093-.878c.98-.8,1.089-.878,1.209-.878a.216.216,0,0,1,.2.091Z" transform="translate(-280.865 234.342)" fill="#017c87"/>
      </g>
    </g>
  </g>
</svg>
